<?xml version="1.0" encoding="UTF-8" standalone="no"?>
<!-- Created with Inkscape (http://www.inkscape.org/) -->

<svg
   width="49.791405mm"
   height="24.896938mm"
   viewBox="0 0 49.791405 24.896938"
   version="1.1"
   id="svg1"
   xml:space="preserve"
   inkscape:version="1.2.2 (b0a8486, 2022-12-01)"
   sodipodi:docname="icon-large.svg"
   xmlns:inkscape="http://www.inkscape.org/namespaces/inkscape"
   xmlns:sodipodi="http://sodipodi.sourceforge.net/DTD/sodipodi-0.dtd"
   xmlns="http://www.w3.org/2000/svg"
   xmlns:svg="http://www.w3.org/2000/svg"><sodipodi:namedview
     id="namedview1"
     pagecolor="#ffffff"
     bordercolor="#000000"
     borderopacity="0.25"
     inkscape:showpageshadow="2"
     inkscape:pageopacity="0.0"
     inkscape:pagecheckerboard="0"
     inkscape:deskcolor="#d1d1d1"
     inkscape:document-units="mm"
     showguides="true"
     inkscape:zoom="4.1453868"
     inkscape:cx="44.145458"
     inkscape:cy="42.939298"
     inkscape:window-width="1920"
     inkscape:window-height="1011"
     inkscape:window-x="0"
     inkscape:window-y="32"
     inkscape:window-maximized="1"
     inkscape:current-layer="g1-6"
     showgrid="false" /><defs
     id="defs1" /><g
     id="g1-6"
     inkscape:groupmode="layer"
     inkscape:label="1"
     transform="matrix(0.26458332,0,0,0.26458334,156.99372,-58.47407)"><rect
       style="fill:#ffffff;stroke-width:0;stroke-linecap:round;stroke-linejoin:round"
       id="rect1319"
       width="93.914154"
       height="92.689194"
       x="-592.19751"
       y="221.62096" /><path
       id="path1-9"
       d="m -547.22213,261.47369 v -17.10933 c 0,-0.532 0.43333,-0.96933 0.964,-0.96933 0.532,0 0.964,0.43733 0.964,0.96933 v 17.10933 c 0,0.53067 -0.432,0.96267 -0.964,0.96267 -0.53067,0 -0.964,-0.432 -0.964,-0.96267 z"
       style="fill:#602d90;fill-opacity:1;fill-rule:nonzero;stroke:none;stroke-width:1.33333"
       inkscape:export-filename="../../../../home/starlord/Documents/CCAD/wiki/ccad-icon-large.svg"
       inkscape:export-xdpi="96"
       inkscape:export-ydpi="96" /><path
       id="path2-9"
       d="m -548.37813,272.26969 -7.56667,-7.568 c -0.19333,-0.192 -0.292,-0.432 -0.292,-0.67066 v -7.136 c 0,-0.53067 0.43734,-0.964 0.968,-0.964 0.52667,0 0.964,0.43333 0.964,0.964 v 6.69733 l 7.276,7.28133 c 0.38534,0.38534 0.38534,1.01067 0,1.396 -0.19333,0.19334 -0.432,0.292 -0.672,0.292 -0.244,0 -0.484,-0.0987 -0.67733,-0.292 z"
       style="fill:#602d90;fill-opacity:1;fill-rule:nonzero;stroke:none;stroke-width:1.33333" /><path
       id="path3-8"
       d="m -545.1488,285.57769 c -0.38533,-0.38533 -0.38533,-1.016 0,-1.40133 l 4.052,-4.04667 v -12.292 c 0,-0.24 0.0947,-0.53066 0.28667,-0.67733 l 2.98933,-2.98933 c 0.19334,-0.19334 0.432,-0.28667 0.67734,-0.28667 h 2.26533 c 0.52667,0 0.964,0.432 0.964,0.964 0,0.53067 -0.43733,0.96267 -0.964,0.96267 h -1.88 l -2.41067,2.412 v 12.292 c 0,0.23866 -0.1,0.53066 -0.292,0.67733 l -4.33866,4.33867 c -0.19334,0.192 -0.432,0.28533 -0.672,0.28533 -0.24534,0.048 -0.484,-0.0467 -0.67734,-0.23867 z"
       style="fill:#602d90;fill-opacity:1;fill-rule:nonzero;stroke:none;stroke-width:1.33333" /><path
       id="path4-5"
       d="m -554.0648,295.88969 c -0.24,0 -0.532,-0.0933 -0.67733,-0.28666 l -7.85467,-7.85867 c -0.192,-0.19333 -0.292,-0.43333 -0.292,-0.672 v -16.53733 c 0,-0.53067 0.43867,-0.96267 0.964,-0.96267 0.532,0 0.964,0.432 0.964,0.96267 v 16.1 l 7.28134,7.28133 h 9.59333 l 4.19333,-4.19333 c 0.192,-0.192 0.432,-0.292 0.676,-0.292 h 15.03734 v -35.18667 h -9.78667 c -0.52667,0 -0.964,-0.43333 -0.964,-0.964 0,-0.53067 0.43733,-0.964 0.964,-0.964 h 10.74933 c 0.24534,0 0.532,0.0947 0.67734,0.28667 0.19333,0.19333 0.28666,0.432 0.28666,0.67733 v 37.16667 c 0,0.24 -0.0933,0.52666 -0.28666,0.672 -0.192,0.192 -0.432,0.292 -0.67734,0.292 h -15.61466 l -4.19734,4.192 c -0.19333,0.19333 -0.432,0.28666 -0.672,0.28666 z"
       style="fill:#602d90;fill-opacity:1;fill-rule:nonzero;stroke:none;stroke-width:1.33333" /><path
       id="path5-9"
       d="m -550.49813,240.50436 c 0,-2.21867 1.78133,-3.95333 3.95333,-3.95333 2.21334,0 3.95334,1.78666 3.95334,3.95333 0,2.21867 -1.78667,3.95333 -3.95334,3.95333 -2.172,0.0467 -3.95333,-1.73466 -3.95333,-3.95333 z m 1.97467,0 c 0,1.10933 0.916,2.02667 2.02533,2.02667 1.10933,0 2.02667,-0.91734 2.02667,-2.02667 0,-1.10933 -0.91734,-2.02667 -2.02667,-2.02667 -1.156,0 -2.02533,0.91734 -2.02533,2.02667 z"
       style="fill:#602d90;fill-opacity:1;fill-rule:nonzero;stroke:none;stroke-width:1.33333" /><path
       id="path6-9"
       d="m -559.46613,253.61903 c 0,-2.21867 1.78667,-3.95334 3.95333,-3.95334 2.21867,0 3.95334,1.78134 3.95334,3.95334 0,2.21333 -1.78134,3.948 -3.95334,3.948 -2.16666,0 -3.95333,-1.73467 -3.95333,-3.948 z m 1.932,0 c 0,1.104 0.912,2.02133 2.02133,2.02133 1.10934,0 2.02534,-0.91733 2.02534,-2.02133 0,-1.10934 -0.916,-2.02667 -2.02534,-2.02667 -1.10933,0 -2.02133,0.91733 -2.02133,2.02667 z"
       style="fill:#602d90;fill-opacity:1;fill-rule:nonzero;stroke:none;stroke-width:1.33333" /><path
       id="path7-9"
       d="m -535.50746,264.75369 c 0,-2.21866 1.78533,-3.952 3.952,-3.952 2.22,0 3.95333,1.78134 3.95333,3.952 0,2.21467 -1.78133,3.948 -3.95333,3.948 -2.16667,0 -3.952,-1.78133 -3.952,-3.948 z m 1.97866,0 c 0,1.10534 0.91734,2.02134 2.02134,2.02134 1.10933,0 2.02533,-0.916 2.02533,-2.02134 0,-1.10933 -0.916,-2.02533 -2.02533,-2.02533 -1.104,0 -2.02134,0.864 -2.02134,2.02533 z"
       style="fill:#602d90;fill-opacity:1;fill-rule:nonzero;stroke:none;stroke-width:1.33333" /><path
       id="path8-0"
       d="m -550.69013,287.02036 c 0,-2.21333 1.78133,-3.948 3.95333,-3.948 2.21334,0 3.95334,1.78133 3.95334,3.948 0,2.21867 -1.78667,3.95333 -3.95334,3.95333 -2.172,0 -3.95333,-1.78133 -3.95333,-3.95333 z m 1.97333,0 c 0,1.10933 0.91734,2.02533 2.02667,2.02533 1.10933,0 2.02533,-0.916 2.02533,-2.02533 0,-1.104 -0.916,-2.02133 -2.02533,-2.02133 -1.156,0 -2.02667,0.91733 -2.02667,2.02133 z"
       style="fill:#602d90;fill-opacity:1;fill-rule:nonzero;stroke:none;stroke-width:1.33333" /><path
       id="path9-4"
       d="m -549.91946,274.00969 c 0,-2.21866 1.78133,-3.95333 3.95333,-3.95333 2.21867,0 3.95333,1.78133 3.95333,3.95333 0,2.21334 -1.78666,3.948 -3.95333,3.948 -2.21867,0 -3.95333,-1.78133 -3.95333,-3.948 z m 1.92666,0 c 0,1.104 0.91734,2.02134 2.02667,2.02134 1.10933,0 2.02533,-0.91734 2.02533,-2.02134 0,-1.10933 -0.916,-2.02666 -2.02533,-2.02666 -1.10933,0 -2.02667,0.91733 -2.02667,2.02666 z"
       style="fill:#602d90;fill-opacity:1;fill-rule:nonzero;stroke:none;stroke-width:1.33333" /><path
       id="path10-4"
       d="m -572.67413,252.07236 c 0,-2.21333 1.78533,-3.95333 3.952,-3.95333 2.22,0 3.95333,1.78666 3.95333,3.95333 0,2.21867 -1.78133,3.95333 -3.95333,3.95333 -2.16667,0 -3.952,-1.78133 -3.952,-3.95333 z m 1.97867,0 c 0,1.10933 0.91733,2.02533 2.02666,2.02533 1.104,0 2.02,-0.916 2.02,-2.02533 0,-1.104 -0.916,-2.02133 -2.02,-2.02133 -1.10933,0 -2.02666,0.91733 -2.02666,2.02133 z"
       style="fill:#602d90;fill-opacity:1;fill-rule:nonzero;stroke:none;stroke-width:1.33333" /><path
       id="path11-9"
       d="m -565.87813,267.25903 c 0,-2.21867 1.78667,-3.952 3.95333,-3.952 2.21867,0 3.95334,1.78 3.95334,3.952 0,2.21866 -1.78134,3.95333 -3.95334,3.95333 -2.16666,0 -3.95333,-1.78667 -3.95333,-3.95333 z m 1.93333,0 c 0,1.10933 0.91067,2.02666 2.02,2.02666 1.10934,0 2.02667,-0.91733 2.02667,-2.02666 0,-1.10934 -0.91733,-2.02534 -2.02667,-2.02534 -1.10933,0 -2.02,0.916 -2.02,2.02534 z"
       style="fill:#602d90;fill-opacity:1;fill-rule:nonzero;stroke:none;stroke-width:1.33333" /><path
       id="path12-2"
       d="m -557.91946,299.55636 c -0.24534,0 -0.53067,-0.0987 -0.67734,-0.292 l -11.328,-11.328 c -0.192,-0.192 -0.292,-0.432 -0.292,-0.672 v -32.05733 c 0,-0.53067 0.43867,-0.96267 0.96934,-0.96267 0.52533,0 0.964,0.432 0.964,0.96267 v 31.672 l 10.74933,10.75066 h 11.90667 c 0.52533,0 0.96266,0.432 0.96266,0.96267 0,0.532 -0.43733,0.964 -0.96266,0.964 z"
       style="fill:#602d90;fill-opacity:1;fill-rule:nonzero;stroke:none;stroke-width:1.33333" /><path
       id="path13-4"
       d="m -500.05547,313.53103 h -91.73866 v -90.95334 h 91.73866 z m -93.30666,1.572 h 188.188 v -94.09867 h -188.188 z"
       style="fill:#602d90;fill-opacity:1;fill-rule:nonzero;stroke:none;stroke-width:1.33333" /><path
       id="path14-6"
       d="m -472.0965,275.78167 c -0.79297,0.5625 -1.64063,0.99219 -2.54688,1.28125 -0.90625,0.30078 -1.83984,0.45312 -2.79687,0.45312 -1.01172,0 -1.99219,-0.16796 -2.9375,-0.5 -0.9375,-0.33203 -1.79688,-0.8125 -2.57813,-1.4375 -1.10546,-0.88281 -1.95312,-1.97265 -2.54687,-3.26562 -0.58594,-1.30078 -0.875,-2.71875 -0.875,-4.25 0,-2.71875 0.85156,-4.97266 2.5625,-6.76563 1.71875,-1.80078 3.86719,-2.70312 6.45312,-2.70312 0.9375,0 1.83204,0.14062 2.6875,0.42187 0.86329,0.27344 1.70703,0.6875 2.53125,1.25 l -0.32812,3.46875 c -0.71094,-0.75781 -1.45313,-1.32812 -2.23438,-1.70312 -0.77343,-0.375 -1.58984,-0.5625 -2.45312,-0.5625 -1.76172,0 -3.20313,0.61719 -4.32813,1.84375 -1.125,1.23047 -1.6875,2.80859 -1.6875,4.73437 0,1.86719 0.54688,3.40625 1.64063,4.625 1.10156,1.21094 2.5,1.8125 4.1875,1.8125 0.96875,0 1.89062,-0.21093 2.76562,-0.64062 0.88282,-0.42578 1.76954,-1.09375 2.65625,-2 z m 17.14062,0 c -0.79296,0.5625 -1.64062,0.99219 -2.54687,1.28125 -0.90625,0.30078 -1.83985,0.45312 -2.79688,0.45312 -1.01171,0 -1.99218,-0.16796 -2.9375,-0.5 -0.9375,-0.33203 -1.79687,-0.8125 -2.57812,-1.4375 -1.10547,-0.88281 -1.95313,-1.97265 -2.54688,-3.26562 -0.58593,-1.30078 -0.875,-2.71875 -0.875,-4.25 0,-2.71875 0.85157,-4.97266 2.5625,-6.76563 1.71875,-1.80078 3.86719,-2.70312 6.45313,-2.70312 0.9375,0 1.83203,0.14062 2.6875,0.42187 0.86328,0.27344 1.70703,0.6875 2.53125,1.25 l -0.32813,3.46875 c -0.71093,-0.75781 -1.45312,-1.32812 -2.23437,-1.70312 -0.77344,-0.375 -1.58985,-0.5625 -2.45313,-0.5625 -1.76172,0 -3.20312,0.61719 -4.32812,1.84375 -1.125,1.23047 -1.6875,2.80859 -1.6875,4.73437 0,1.86719 0.54687,3.40625 1.64062,4.625 1.10157,1.21094 2.5,1.8125 4.1875,1.8125 0.96875,0 1.89063,-0.21093 2.76563,-0.64062 0.88281,-0.42578 1.76953,-1.09375 2.65625,-2 z m 8.35938,-4.53125 h 5.8125 l -2.875,-6.625 z m -2.59375,5.6875 h -3.17188 l 8.73438,-18.3125 h 0.25 l 8.40625,18.3125 h -3.28125 l -1.42188,-3.15625 h -8.0625 z m 19.93359,-2.82813 h 1.60938 c 2.20703,0 3.92968,-0.53515 5.17187,-1.60937 1.25,-1.07031 1.875,-2.55078 1.875,-4.4375 0,-1.89453 -0.625,-3.375 -1.875,-4.4375 -1.24219,-1.07031 -2.96484,-1.60938 -5.17187,-1.60938 h -1.60938 z m -3.07812,2.82813 v -17.75 h 4.28125 c 3.3125,0 5.91015,0.79297 7.79687,2.375 1.89453,1.58594 2.84375,3.75 2.84375,6.5 0,1.64844 -0.375,3.10937 -1.125,4.39062 -0.75,1.28125 -1.83984,2.33594 -3.26562,3.15625 -0.8125,0.46875 -1.70313,0.8086 -2.67188,1.01563 -0.96094,0.21094 -2.15234,0.3125 -3.57812,0.3125 z m 0,0"
       style="fill:#ffffff;fill-opacity:1;fill-rule:nonzero;stroke:none;stroke-width:1.33333"
       aria-label="CCAD" /><text
       xml:space="preserve"
       style="font-style:normal;font-variant:normal;font-weight:normal;font-stretch:normal;font-size:16px;font-family:'Liberation Sans';-inkscape-font-specification:'Liberation Sans';fill:#ffffff;fill-opacity:1;stroke-width:1.00157;stroke-dasharray:none"
       x="-464.67657"
       y="296.77191"
       id="text2"><tspan
         sodipodi:role="line"
         id="tspan2"
         x="-464.67657"
         y="296.77191"
         style="font-style:normal;font-variant:normal;font-weight:normal;font-stretch:normal;font-size:16px;font-family:'Liberation Sans';-inkscape-font-specification:'Liberation Sans';fill:#ffffff;fill-opacity:1;stroke-width:1.00157;stroke-dasharray:none">wiki</tspan></text></g></svg>
